<svg width="100%" height="100%" viewBox="0 0 1920 1080" version="1.1" xmlns="http://www.w3.org/2000/svg" xmlns:xlink="http://www.w3.org/1999/xlink" xml:space="preserve" xmlns:serif="http://www.serif.com/" style="fill-rule:evenodd;clip-rule:evenodd;stroke-linejoin:round;stroke-miterlimit:1.41421;">
    <g transform="matrix(1,0,0,1,-1324,0)">
        <g id="Artboard1" transform="matrix(0.853713,0,0,0.485393,-44.5016,127.173)">
            <rect x="1603" y="-262" width="2249" height="2225" style="fill:none;"/>
            <g class="building-floor js-building-buro-floor" id="28" data-id="1_4" serif:id="1-4" transform="matrix(1.17135,0,0,2.06019,52.1271,-262)">
                <path d="M2823.68,607.765L2818.72,638.756L2814.13,640.204L2810.49,638.338L2783.38,645.104L2783.12,647.57L2778.66,648.368L2774.69,646.606L2752.91,651.392L2752.16,655.337L2688.7,670.264L2687.38,681.781L2616.7,697.73L2606.47,689.494L2552.09,702.591L2544.9,698.543L2491.03,711.614L2479.06,700.533L2358.19,729.428L2358.07,738.83L2240.98,787.98L2201.28,757.723L2196.27,760.129L2159.65,731.425L2156.22,732.35L2154.59,730.92L2145.04,734.129L2098.94,701.64L2097.95,682.169L2067.41,657.815L2066.4,650.192L2031.93,622.803L2031.39,613.48L2027.38,607.896L2024.11,593.646L2024.14,593.656L2024.14,593.685L2065,626L2065,631L2091.22,650.926L2091.58,670.452L2137,705L2137,708L2140,709L2143,708L2156,717L2169,712L2195,731L2198,730L2240,760L2356,710L2356,697.422L2477.46,668.669L2492.36,685.995L2550.12,672.164L2553.42,675.089L2608.06,661.925L2618.57,671.708L2695.99,653.388L2694.09,650.581L2693.93,649.196L2692.45,648.692L2692.77,641.317L2757.51,627.462L2758.18,623.556L2823.68,607.765Z" style="fill:rgb(228,142,60);"/>
            </g>
            <g class="building-floor js-building-buro-floor" id="25" data-id="1_1" serif:id="1-1" transform="matrix(1.17135,0,0,2.06019,52.1271,-262)">
                <path d="M2032.05,678.612L2033.95,679.886L2037.33,678.638L2056.62,693.505L2070.22,703.456L2071.43,712.693L2100.61,735.906L2101.43,748.364L2097.06,752.557L2097.8,757.071L2145.43,794.55L2161.3,789.391L2197.37,816.416L2203.38,814.132L2242.29,843.608L2356.27,794.726L2356.57,799.09L2369.06,816.146L2496,784.804L2496.28,780.637L2485.66,767.859L2539.72,754.064L2546.65,757.971L2599.11,744.656L2611.51,755.693L2682.32,737.181L2682.63,733.51L2680.39,730.469L2682.07,725.408L2743.61,710.187L2744.46,705.459L2800.92,690.25L2805.05,691.686L2808.63,690.415L2808.98,690.655L2800.3,736.345L2795.21,738.303L2792.7,735.114L2738.31,750.477L2736.85,752.217L2673.84,767.218L2672.93,775.686L2609.17,791.6L2599.11,786.061L2542.43,800.056L2535.97,796.291L2514.51,803.585L2509.68,802.713L2483.53,810.286L2467.67,798.434L2355.4,826.628L2355,835.39L2242.6,885.477L2203.64,854.962L2198.22,856.623L2073.52,754.123L2073.6,747.641L2035.82,717.712L2032.05,678.612Z" style="fill:rgb(228,142,60);"/>
            </g>
            <g class="building-floor js-building-buro-floor" id="26" data-id="1_2" serif:id="1-2" transform="matrix(1.17135,0,0,2.06019,52.1271,-262)">
                <path d="M2029.31,646.845L2029.32,648.098L2068.61,680.149L2069.35,685.212L2099.09,708.634L2100.49,729.367L2146.1,763.393L2158.39,758.171L2196.75,787.972L2200.84,785.362L2240.56,815.79L2356.8,766.402L2357.65,756.777L2475.65,729.368L2489.2,740.475L2544.33,727.506L2548.68,730.193L2603.46,717.267L2613.22,725.288L2683.39,708.639L2684.94,697.235L2747.24,683.546L2747.97,679.234L2813.68,664.623L2809.12,690.238L2805.05,691.686L2800.92,690.25L2744.46,705.459L2743.61,710.187L2682.07,725.408L2680.39,730.469L2682.63,733.51L2682.32,737.181L2611.51,755.693L2599.11,744.656L2546.65,757.971L2539.72,754.064L2485.66,767.859L2475.66,756.023L2356.57,784.581L2356.27,794.726L2242.29,843.608L2203.38,814.132L2197.37,816.416L2161.3,789.391L2145.43,794.55L2097.8,757.071L2097.06,752.557L2101.43,748.364L2100.61,735.906L2071.43,712.693L2070.22,703.456L2056.62,693.505L2037.33,678.638L2033.95,679.886L2031.54,678.271L2029.05,646.721L2029.31,646.845Z" style="fill:rgb(228,142,60);"/>
            </g>
            <g class="building-floor js-building-buro-floor" id="27" data-id="1_3" serif:id="1-3" transform="matrix(1.17135,0,0,2.06019,52.1271,-262)">
                <path d="M2032.23,623.041L2066.4,650.192L2067.41,657.815L2097.95,682.169L2098.94,701.64L2145.04,734.129L2154.59,730.92L2156.22,732.35L2159.65,731.425L2196.27,760.129L2201.28,757.723L2240.98,787.98L2358.07,738.83L2358.19,729.428L2479.06,700.533L2491.03,711.614L2544.9,698.543L2552.09,702.591L2606.47,689.494L2616.7,697.73L2687.38,681.781L2688.7,670.264L2752.16,655.337L2752.91,651.392L2774.69,646.606L2778.66,648.368L2783.12,647.57L2783.38,645.104L2810.49,638.338L2814.13,640.204L2818.57,638.803L2814.07,664.537L2747.97,679.234L2747.24,683.546L2684.94,697.235L2683.39,708.639L2613.22,725.288L2603.46,717.267L2548.68,730.193L2544.33,727.506L2489.2,740.475L2475.65,729.368L2357.65,756.777L2356.8,766.402L2240.56,815.79L2200.84,785.362L2196.75,787.972L2158.39,758.171L2146.1,763.393L2100.49,729.367L2099.09,708.634L2069.35,685.212L2068.61,680.149L2029.32,648.098L2029.3,646.184L2032.94,643.391L2032.23,623.041ZM2091.58,670.276L2092,670.77L2091.58,670.452L2091.58,670.276Z" style="fill:rgb(228,142,60);"/>
            </g>
        </g>
    </g>
</svg>