<?xml version="1.0" encoding="UTF-8"?>
<svg width="1600px" height="900px" viewBox="0 0 1600 900" version="1.1" xmlns="http://www.w3.org/2000/svg" xmlns:xlink="http://www.w3.org/1999/xlink">
    <!-- Generator: Sketch 59 (86127) - https://sketch.com -->
    <title>1600-3-2-Panaram-label-linn</title>
    <desc>Created with Sketch.</desc>
    <g id="1600" stroke="none" stroke-width="1" fill="none" fill-rule="evenodd">
        <g id="1600-3-2-Panaram-label-linn" fill="#FFFFFF">
            <path d="M1600,0 L1600,900 L0,900 L0,0 L1600,0 Z M555.825,153.85 L525.225,153.85 L525.225,748 L629.775,748 L629.775,725.05 L555.825,725.05 L555.825,153.85 Z M684.175,153.85 L653.575,153.85 L653.575,748 L684.175,748 L684.175,153.85 Z M758.125,153.85 L722.425,153.85 L722.425,748 L748.775,748 L748.775,242.25 L844.825,748 L879.675,748 L879.675,153.85 L852.475,153.85 L852.475,656.2 L851.625,656.2 L758.125,153.85 Z M951.925,153.85 L916.225,153.85 L916.225,748 L942.575,748 L942.575,242.25 L1038.625,748 L1073.475,748 L1073.475,153.85 L1046.275,153.85 L1046.275,656.2 L1045.425,656.2 L951.925,153.85 Z"></path>
        </g>
    </g>
</svg>