<?xml version="1.0" encoding="UTF-8" standalone="no"?>
<!DOCTYPE svg PUBLIC "-//W3C//DTD SVG 1.1//EN" "http://www.w3.org/Graphics/SVG/1.1/DTD/svg11.dtd">
<svg width="100%" height="100%" viewBox="0 0 1600 900" version="1.1" xmlns="http://www.w3.org/2000/svg" xmlns:xlink="http://www.w3.org/1999/xlink" xml:space="preserve" xmlns:serif="http://www.serif.com/" style="fill-rule:evenodd;clip-rule:evenodd;stroke-linejoin:round;stroke-miterlimit:1.41421;">
    <g transform="matrix(1,0,0,1,-4825,-91)">
        <g transform="matrix(0.635425,0,0,0.356295,2201.33,230.736)">
            <g transform="matrix(1.57375,0,0,2.80667,-3464.34,-647.6)">
                <path d="M6425,91L6425,991L4825,991L4825,91L6425,91ZM5434.7,776C5444.19,776 5453.12,772.266 5461.47,764.798C5469.82,757.33 5474,744.787 5474,727.17L5474,371L5459.76,371L5459.76,724.872C5459.76,739.043 5457.01,749 5451.5,754.745C5446,760.489 5440.02,763.362 5433.56,763.362L5428.44,763.362C5421.98,763.362 5416,760.489 5410.5,754.745C5404.99,749 5402.24,739.043 5402.24,724.872L5402.24,371L5388,371L5388,727.17C5388,735.979 5389.23,743.543 5391.7,749.862C5394.17,756.181 5397.21,761.255 5400.82,765.085C5404.42,768.915 5408.6,771.691 5413.34,773.415C5418.09,775.138 5422.74,776 5427.3,776L5434.7,776ZM5704,772L5704,371L5683.84,371L5641.21,722.664L5598.59,371L5579,371L5579,772L5591.1,772L5591.1,410.584L5591.67,410.584L5634.88,772L5647.55,772L5691.33,410.584L5691.33,772L5704,772ZM5127,772L5085.68,371L5066.74,371L5026,772L5038.62,772L5050.68,652.675L5100.03,652.675L5112.65,772L5127,772ZM5236,772C5234.85,767.792 5233.89,761.865 5233.12,754.216C5232.35,746.567 5231.97,734.137 5231.97,716.927L5231.97,610.797C5231.97,598.558 5230.05,589.475 5226.21,583.547C5222.37,577.619 5217.57,573.89 5211.81,572.361C5217.57,570.448 5222.37,566.528 5226.21,560.6C5230.05,554.672 5231.97,545.589 5231.97,533.351L5231.97,419.763C5231.97,411.349 5230.82,404.082 5228.51,397.963C5226.21,391.844 5223.14,386.776 5219.3,382.76C5215.46,378.745 5211.23,375.781 5206.63,373.868C5202.02,371.956 5197.22,371 5192.23,371L5145,371L5145,772L5159.4,772L5159.4,577.524L5195.68,577.524C5202.21,577.524 5207.49,580.297 5211.52,585.842C5215.55,591.388 5217.57,600.088 5217.57,611.944L5217.57,716.927C5217.57,732.608 5217.76,744.463 5218.15,752.495C5218.53,760.527 5219.68,767.028 5221.6,772L5236,772ZM5359,772L5359,371L5345.76,371L5345.76,730.695L5277.84,371L5260,371L5260,772L5272.09,772L5272.09,410.584L5272.66,410.584L5341.16,772L5359,772ZM4975.26,595.308C4985.13,595.307 4993.39,591.865 5000.03,584.981C5006.68,578.097 5010,567.389 5010,552.856L5010,419.763C5010,402.935 5005.92,390.601 4997.76,382.76C4989.59,374.92 4980.57,371 4970.7,371L4924,371L4924,772L4938.24,772L4938.24,595.308L4975.26,595.308ZM5823,772L5781.68,371L5762.74,371L5722,772L5734.62,772L5746.68,652.675L5796.03,652.675L5808.65,772L5823,772ZM5928,772L5886.68,371L5867.74,371L5827,772L5839.62,772L5851.68,652.675L5901.03,652.675L5913.65,772L5928,772ZM6043,772L6043,371L6029.76,371L6029.76,730.695L5961.84,371L5944,371L5944,772L5956.09,772L5956.09,410.584L5956.66,410.584L6025.16,772L6043,772ZM6144,383.621L6144,371L6058,371L6058,383.621L6094.12,383.621L6094.12,772L6108.45,772L6108.45,383.621L6144,383.621ZM6231.86,383.621L6231.86,371L6162,371L6162,772L6233,772L6233,759.379L6176.32,759.379L6176.32,576.95L6218.69,576.95L6218.69,565.476L6176.32,565.476L6176.32,383.621L6231.86,383.621ZM6324.86,383.621L6324.86,371L6255,371L6255,772L6326,772L6326,759.379L6269.32,759.379L6269.32,576.95L6311.69,576.95L6311.69,565.476L6269.32,565.476L6269.32,383.621L6324.86,383.621ZM5076.07,416L5099,643L5052,643L5075.5,416L5076.07,416ZM5772.07,416L5795,643L5748,643L5771.5,416L5772.07,416ZM5877.07,416L5900,643L5853,643L5876.5,416L5877.07,416ZM4969.58,384C4976.09,384 4982.12,386.955 4987.67,392.864C4993.22,398.773 4996,408.398 4996,421.741L4996,548.69C4996,560.508 4993.99,569.181 4989.97,574.708C4985.95,580.236 4980.69,583 4974.18,583L4938,583L4938,384L4969.58,384ZM5190.58,384C5197.09,384 5203.12,386.964 5208.67,392.892C5214.23,398.82 5217,408.476 5217,421.862L5217,532.58C5217,544.436 5214.99,553.136 5210.97,558.682C5206.95,564.227 5201.69,567 5195.18,567L5159,567L5159,384L5190.58,384ZM5096,339L5096,304L5085,304L5085,339L5096,339ZM5067,339L5067,304L5058,304L5058,339L5067,339Z" style="fill:rgb(247,247,247);"/>
            </g>
        </g>
    </g>
</svg>
