<?xml version="1.0" encoding="UTF-8"?>
<svg width="11px" height="46px" viewBox="0 0 11 46" version="1.1" xmlns="http://www.w3.org/2000/svg" xmlns:xlink="http://www.w3.org/1999/xlink">
    <!-- Generator: Sketch 57 (83077) - https://sketch.com -->
    <title>Path 9</title>
    <desc>Created with Sketch.</desc>
    <g id="1600" stroke="none" stroke-width="1" fill="none" fill-rule="evenodd" opacity="0.300000012">
        <g id="1600-3-1-DetailFlat-Pdf" transform="translate(-76.000000, -1033.000000)" stroke="#362D4C">
            <g id="Group-21" transform="translate(59.000000, 916.837752)">
                <g id="Group-19-Copy" transform="translate(22.500000, 139.000000) scale(-1, 1) rotate(-90.000000) translate(-22.500000, -139.000000) translate(0.000000, 134.000000)">
                    <g id="Path-9">
                        <path d="M44.5,4.83130081 L0,4.83130081"></path>
                        <polyline id="Path-10" points="4.73111954 9.46223909 0 4.73111954 4.73111954 2.72846934e-12"></polyline>
                    </g>
                </g>
            </g>
        </g>
    </g>
</svg>