<?xml version="1.0" encoding="UTF-8"?>
<svg width="70px" height="70px" viewBox="0 0 70 70" version="1.1" xmlns="http://www.w3.org/2000/svg" xmlns:xlink="http://www.w3.org/1999/xlink">
    <!-- Generator: Sketch 56.3 (81716) - https://sketch.com -->
    <title>Combined Shape</title>
    <desc>Created with Sketch.</desc>
    <g id="1600" stroke="none" stroke-width="1" fill="none" fill-rule="evenodd">
        <g id="ux" transform="translate(-146.000000, -1217.000000)" fill="#FFFFFF">
            <path d="M181,1287 C161.670034,1287 146,1271.32997 146,1252 C146,1232.67003 161.670034,1217 181,1217 C200.329966,1217 216,1232.67003 216,1252 C216,1271.32997 200.329966,1287 181,1287 Z M194,1252.5 L175,1243 L175,1262 L194,1252.5 Z" id="Combined-Shape"></path>
        </g>
    </g>
</svg>