<?xml version="1.0" encoding="UTF-8"?>
<svg width="118px" height="59px" viewBox="0 0 118 59" version="1.1" xmlns="http://www.w3.org/2000/svg" xmlns:xlink="http://www.w3.org/1999/xlink">
    <!-- Generator: Sketch 57.1 (83088) - https://sketch.com -->
    <title>Group 24</title>
    <desc>Created with Sketch.</desc>
    <g id="1600" stroke="none" stroke-width="1" fill="none" fill-rule="evenodd">
        <g id="1600-3-1-DetailFlat" transform="translate(-372.000000, -57.000000)">
            <g id="1" transform="translate(0.000000, -7.000000)">
                <g id="Group-24" transform="translate(372.000000, 64.000000)">
                    <g id="Group-22">
                        <path d="M65.5,59 C52.1446353,59 40.8621231,50.1250631 37.2283343,37.9510599 L38.3967195,38.3374861 C42.1159874,49.7515174 52.8447256,58 65.5,58 C78.3109897,58 89.1477418,49.5472838 92.7373772,37.9147302 L93.8953388,37.5249698 C90.4000334,49.9174271 79.010691,59 65.5,59 Z M65.5,0 C79.1501349,0 90.6349063,9.27102291 94.0010349,21.8597893 L92.8539998,21.4730295 C89.3875984,9.64103187 78.4529098,1 65.5,1 C52.8399222,1 42.1078435,9.2547452 38.3924875,20.6755119 L37.2194122,21.0788893 C40.8436245,8.88949516 52.1336858,0 65.5,0 Z" id="Combined-Shape" fill-opacity="0.3" fill="#0E1632"></path>
                        <g id="Group-23" transform="translate(65.000000, 29.500000) rotate(-90.000000) translate(-65.000000, -29.500000) translate(58.000000, -23.000000)">
                            <polygon id="Triangle" fill="#E0E0E0" transform="translate(7.000000, 80.000000) rotate(-180.000000) translate(-7.000000, -80.000000) " points="7 55 14 105 0 105"></polygon>
                            <polygon id="Triangle" fill="#0E1632" points="7 0 14 50 0 50"></polygon>
                        </g>
                        <text id="N" font-family=".SFNSDisplay, .SF NS Display" font-size="30" font-weight="normal" line-spacing="30" letter-spacing="2" fill="#0E1632">
                            <tspan x="0" y="47">N</tspan>
                        </text>
                    </g>
                </g>
            </g>
        </g>
    </g>
</svg>