<?xml version="1.0" encoding="UTF-8"?>
<svg width="51px" height="53px" viewBox="0 0 51 53" version="1.1" xmlns="http://www.w3.org/2000/svg" xmlns:xlink="http://www.w3.org/1999/xlink">
    <!-- Generator: Sketch 56.3 (81716) - https://sketch.com -->
    <title>Group 19</title>
    <desc>Created with Sketch.</desc>
    <defs>
        <polyline id="path-1" points="0 0 30.3510702 51.4312096 60.7016256 0"></polyline>
    </defs>
    <g id="1600" stroke="none" stroke-width="1" fill="none" fill-rule="evenodd">
        <g id="1600-1-1-index" transform="translate(-1145.000000, -1538.000000)">
            <g id="map" transform="translate(801.000000, 900.000000)">
                <g id="map2-2" transform="translate(-423.000000, 0.000000)">
                    <g id="map2" transform="translate(-150.000000, -76.000000)">
                        <g id="Group-19" transform="translate(910.524384, 714.893813)">
                            <mask id="mask-2" fill="white">
                                <use xlink:href="#path-1"></use>
                            </mask>
                            <g id="Clip-2"></g>
                            <polyline id="Stroke-1" stroke="#E9A564" stroke-width="2" mask="url(#mask-2)" points="7.20188778 10.2862419 16.0861605 1.02862419 23.319082 2.82139954 30.6505553 4.79751658 34.3412952 1.85586066 57.6151023 7.92251418"></polyline>
                            <polyline id="Stroke-6" stroke="#E9A564" stroke-width="2" mask="url(#mask-2)" points="7.20188778 20.5724838 16.2191057 11.3148661 24.1578625 12.7547171 30.5772816 14.5041474 33.9550452 11.7155077 57.6151023 17.0280112"></polyline>
                            <polyline id="Stroke-8" stroke="#E9A564" stroke-width="2" mask="url(#mask-2)" points="7.20188778 29.8301016 16.3589761 20.6040688 24.7503152 21.7368818 30.5484521 23.2879408 33.8574229 20.5724838 57.6151023 25.3024155"></polyline>
                            <polyline id="Stroke-10" stroke="#E9A564" stroke-width="2" mask="url(#mask-2)" points="7.20188778 38.0590951 16.4088017 29.0853416 25.2006383 29.9793684 30.4272199 31.3636128 33.6656299 28.8014774 57.6151023 32.9552372"></polyline>
                            <polyline id="Stroke-12" stroke="#E9A564" stroke-width="2" mask="url(#mask-2)" points="7.20188778 47.3167128 16.433473 38.4655433 25.3747049 39.2409742 30.4516926 40.5302657 33.5550584 38.0590951 57.6151023 41.9187545"></polyline>
                            <polyline id="Stroke-14" stroke="#E9A564" stroke-width="2" mask="url(#mask-2)" points="7.20188778 57.6029548 16.5730281 49.1948909 25.9631501 49.5893908 30.4224289 50.5960042 33.4007063 48.345337 57.6151023 51.3471666"></polyline>
                        </g>
                    </g>
                </g>
            </g>
        </g>
    </g>
</svg>