<?xml version="1.0" encoding="UTF-8"?>
<svg width="84px" height="40px" viewBox="0 0 84 40" version="1.1" xmlns="http://www.w3.org/2000/svg" xmlns:xlink="http://www.w3.org/1999/xlink">
    <!-- Generator: Sketch 56.3 (81716) - https://sketch.com -->
    <title>Fill 1</title>
    <desc>Created with Sketch.</desc>
    <g id="1600" stroke="none" stroke-width="1" fill="none" fill-rule="evenodd">
        <g id="1600-1-1-index" transform="translate(-1466.000000, -844.000000)" fill="#FFFFFF">
            <g id="bt-logo-fixed-block" transform="translate(0.000000, 830.000000)">
                <path d="M1511.0903,53.6845 L1509.8473,53.6845 L1509.8473,44.5945 L1511.0903,44.5945 L1511.0903,44.9545 C1511.6843,44.6505 1512.4023,44.4795 1513.1303,44.4795 C1515.1523,44.4795 1516.7963,46.0975 1516.7963,48.0865 C1516.7963,50.0815 1515.1523,51.7055 1513.1303,51.7055 C1512.3753,51.7055 1511.6833,51.5525 1511.0903,51.2575 L1511.0903,53.6845 Z M1531.1013,51.6595 L1529.8683,51.6595 L1529.8683,51.2455 C1529.2653,51.5475 1528.5693,51.7055 1527.8183,51.7055 C1525.8033,51.7055 1524.1633,50.0815 1524.1633,48.0865 C1524.1633,46.0975 1525.8033,44.4795 1527.8183,44.4795 C1528.5463,44.4795 1529.2693,44.6525 1529.8683,44.9585 L1529.8683,44.5945 L1531.1013,44.5945 L1531.1013,51.6595 Z M1508.6603,51.6595 L1507.4283,51.6595 L1507.4283,51.2455 C1506.8233,51.5475 1506.1273,51.7055 1505.3763,51.7055 C1503.3613,51.7055 1501.7233,50.0815 1501.7233,48.0865 C1501.7233,46.0975 1503.3613,44.4795 1505.3763,44.4795 C1506.1053,44.4795 1506.8273,44.6525 1507.4283,44.9585 L1507.4283,44.5945 L1508.6603,44.5945 L1508.6603,51.6595 Z M1497.7033,51.7055 C1495.1203,51.7055 1493.0203,49.6715 1493.0203,47.1725 C1493.0203,44.6655 1495.1203,42.6265 1497.7033,42.6265 C1499.1093,42.6265 1500.4353,43.2465 1501.3413,44.3265 L1501.6043,44.6385 L1500.6393,45.4705 L1500.3693,45.1435 C1499.7113,44.3415 1498.7393,43.8815 1497.7033,43.8815 C1495.8253,43.8815 1494.2973,45.3585 1494.2973,47.1725 C1494.2973,48.9805 1495.8253,50.4515 1497.7033,50.4515 C1498.7453,50.4515 1499.7173,49.9965 1500.3693,49.2015 L1500.6393,48.8745 L1501.6043,49.7055 L1501.3413,50.0195 C1500.4423,51.0905 1499.1153,51.7055 1497.7033,51.7055 Z M1521.7263,44.5945 L1524.1563,44.5945 L1524.1563,45.8035 L1521.7263,45.8035 L1521.7263,49.2555 C1521.7263,50.3355 1522.2413,50.4735 1522.6913,50.4735 C1523.0653,50.4735 1523.3653,50.4415 1523.6103,50.3735 L1524.1333,50.2285 L1524.1333,51.4725 L1523.8253,51.5535 C1523.4363,51.6565 1523.0373,51.7055 1522.6103,51.7055 C1521.3303,51.7055 1520.4713,50.8145 1520.4713,49.4875 L1520.4713,45.8035 L1519.3253,45.8035 L1519.3253,44.5945 L1520.4713,44.5945 L1520.4713,42.1065 L1521.7263,42.1065 L1521.7263,44.5945 Z M1517.6123,51.6595 L1518.8673,51.6595 L1518.8673,44.5945 L1517.6123,44.5945 L1517.6123,51.6595 Z M1532.2873,51.6595 L1533.5423,51.6595 L1533.5423,42.1065 L1532.2873,42.1065 L1532.2873,51.6595 Z M1466.005,30.0234 L1466.005,30.015 C1466.005,29.98 1466.006,29.947 1466.006,29.845 C1466.006,29.358 1466.23,28.922 1466.582,28.631 C1466.638,28.58 1466.699,28.528 1466.767,28.476 L1472.343,23.644 L1472.343,45.08 L1472.341,45.084 C1472.34,45.092 1472.34,45.1 1472.34,45.105 C1472.34,45.139 1472.338,45.173 1472.338,45.275 L1472.338,45.327 L1472.3373,45.3207 C1472.3239,45.7902 1472.104,46.2081 1471.763,46.489 C1471.706,46.54 1471.645,46.592 1471.577,46.645 L1466,51.475 L1466,29.982 L1466.0012,29.9935 C1466.0024,30.0035 1466.0036,30.0135 1466.005,30.0234 Z M1481.432,36.728 L1481.432,23.644 L1487.008,28.476 C1487.075,28.528 1487.137,28.58 1487.195,28.631 C1487.546,28.922 1487.77,29.358 1487.77,29.845 C1487.77,29.947 1487.77,29.98 1487.771,30.015 L1487.771,30.036 L1487.775,30.039 L1487.775,51.475 L1482.197,46.645 C1482.132,46.592 1482.069,46.54 1482.012,46.489 C1481.6632,46.2008 1481.4398,45.7685 1481.4371,45.2842 C1481.4351,45.2984 1481.4335,45.3126 1481.432,45.327 L1481.432,36.728 Z M1511.0903,49.8285 C1511.5783,50.2465 1512.2833,50.4735 1513.0963,50.4735 C1514.4503,50.4735 1515.5533,49.4035 1515.5533,48.0865 C1515.5533,46.7765 1514.4503,45.7105 1513.0963,45.7105 C1512.2933,45.7105 1511.6043,45.9425 1511.0903,46.3815 L1511.0903,49.8285 Z M1527.8523,45.7105 C1526.4973,45.7105 1525.3953,46.7765 1525.3953,48.0865 C1525.3953,49.4035 1526.4973,50.4735 1527.8523,50.4735 C1528.6613,50.4735 1529.3703,50.2455 1529.8683,49.8255 L1529.8683,46.3815 C1529.3593,45.9485 1528.6503,45.7105 1527.8523,45.7105 Z M1505.4113,45.7105 C1504.0573,45.7105 1502.9543,46.7765 1502.9543,48.0865 C1502.9543,49.4035 1504.0573,50.4735 1505.4113,50.4735 C1506.2213,50.4735 1506.9293,50.2455 1507.4283,49.8255 L1507.4283,46.3815 C1506.9173,45.9485 1506.2083,45.7105 1505.4113,45.7105 Z M1518.2353,44.1025 C1517.8083,44.1025 1517.4743,43.7735 1517.4743,43.3535 C1517.4743,42.9335 1517.8083,42.6045 1518.2353,42.6045 C1518.6613,42.6045 1518.9953,42.9335 1518.9953,43.3535 C1518.9953,43.7735 1518.6613,44.1025 1518.2353,44.1025 Z M1473.7201,20.3663 C1473.7211,20.3335 1473.722,20.2992 1473.721,20.2 C1473.721,19.713 1473.944,19.278 1474.297,18.986 C1474.354,18.936 1474.415,18.884 1474.483,18.831 L1480.059,14 L1480.059,35.435 L1480.055,35.439 L1480.055,35.461 C1480.055,35.4833 1480.0546,35.5052 1480.0543,35.5467 L1480.0543,41.7452 L1476.9573,39.0237 L1473.717,41.831 L1473.717,35.5815 L1473.7163,35.5732 L1473.7163,25.5732 L1473.717,25.5732 L1473.717,20.338 C1473.7179,20.3475 1473.719,20.3569 1473.7201,20.3663 Z M1509.3083,41.5605 L1508.0653,41.5605 L1508.0653,32.4705 L1509.3083,32.4705 L1509.3083,32.8305 C1509.9023,32.5265 1510.6193,32.3545 1511.3483,32.3545 C1513.3693,32.3545 1515.0143,33.9725 1515.0143,35.9615 C1515.0143,37.9575 1513.3693,39.5805 1511.3483,39.5805 C1510.5933,39.5805 1509.9013,39.4275 1509.3083,39.1325 L1509.3083,41.5605 Z M1519.1643,36.5605 C1519.4193,37.6065 1520.3373,38.3495 1521.4513,38.3495 C1522.3203,38.3495 1523.0743,38.0235 1523.5233,37.4545 L1523.7783,37.1285 L1524.7533,37.8965 L1524.4953,38.2215 C1523.8193,39.0735 1522.6733,39.5805 1521.4293,39.5805 C1519.3853,39.5805 1517.8443,38.0305 1517.8443,35.9735 C1517.8443,33.9115 1519.3853,32.3545 1521.4293,32.3545 C1523.4693,32.3545 1524.8393,33.8235 1524.8393,36.0085 L1524.8393,36.5605 L1519.1643,36.5605 Z M1539.1523,36.5605 C1539.4063,37.6065 1540.3243,38.3495 1541.4393,38.3495 C1542.3073,38.3495 1543.0623,38.0235 1543.5103,37.4545 L1543.7663,37.1295 L1544.7403,37.8965 L1544.4833,38.2215 C1543.8073,39.0735 1542.6603,39.5805 1541.4163,39.5805 C1539.3723,39.5805 1537.8313,38.0305 1537.8313,35.9735 C1537.8313,33.9115 1539.3723,32.3545 1541.4163,32.3545 C1543.4563,32.3545 1544.8263,33.8235 1544.8263,36.0085 L1544.8263,36.5605 L1539.1523,36.5605 Z M1547.2803,32.4705 L1549.7113,32.4705 L1549.7113,33.6785 L1547.2803,33.6785 L1547.2803,37.1305 C1547.2803,38.2105 1547.7953,38.3495 1548.2443,38.3495 C1548.6183,38.3495 1548.9193,38.3165 1549.1643,38.2485 L1549.6883,38.1035 L1549.6883,39.3475 L1549.3793,39.4285 C1548.9893,39.5315 1548.5913,39.5805 1548.1633,39.5805 C1546.8843,39.5805 1546.0263,38.6895 1546.0263,37.3625 L1546.0263,33.6785 L1544.8793,33.6785 L1544.8793,32.4705 L1546.0263,32.4705 L1546.0263,29.9825 L1547.2803,29.9825 L1547.2803,32.4705 Z M1530.7073,39.5355 L1529.4523,39.5355 L1529.4523,30.5485 L1530.3513,30.5485 L1535.7133,37.1375 L1535.7133,30.5485 L1536.9683,30.5485 L1536.9683,39.5355 L1536.0813,39.5355 L1530.7073,32.9455 L1530.7073,39.5355 Z M1515.8193,39.5355 L1517.0733,39.5355 L1517.0733,29.9825 L1515.8193,29.9825 L1515.8193,39.5355 Z M1505.6113,39.5355 L1506.8663,39.5355 L1506.8663,32.4705 L1505.6113,32.4705 L1505.6113,39.5355 Z M1501.8313,39.5355 L1500.5883,39.5355 L1500.5883,32.4705 L1501.8313,32.4705 L1501.8313,33.0085 C1502.2903,32.5915 1502.8713,32.3625 1503.5313,32.3545 C1503.9563,32.3545 1504.3923,32.4615 1504.7973,32.6635 L1505.0963,32.8135 L1504.7823,34.0315 L1504.3283,33.8115 C1504.0683,33.6845 1503.7893,33.6215 1503.5013,33.6215 C1502.5343,33.6215 1501.8313,34.5575 1501.8313,35.8465 L1501.8313,39.5355 Z M1500.1993,31.7815 L1497.2263,31.7815 L1497.2263,39.5355 L1495.9713,39.5355 L1495.9713,31.7815 L1493.0083,31.7815 L1493.0083,30.5485 L1500.1993,30.5485 L1500.1993,31.7815 Z M1509.3083,37.7035 C1509.7963,38.1215 1510.5013,38.3495 1511.3143,38.3495 C1512.6683,38.3495 1513.7713,37.2785 1513.7713,35.9615 C1513.7713,34.6525 1512.6683,33.5855 1511.3143,33.5855 C1510.5113,33.5855 1509.8213,33.8185 1509.3083,34.2575 L1509.3083,37.7035 Z M1539.1433,35.3635 L1543.5443,35.3635 C1543.3333,34.2485 1542.5473,33.5755 1541.4163,33.5755 C1540.2773,33.5755 1539.3783,34.3045 1539.1433,35.3635 Z M1519.1553,35.3635 L1523.5573,35.3635 C1523.3463,34.2485 1522.5603,33.5755 1521.4293,33.5755 C1520.2893,33.5755 1519.3913,34.3045 1519.1553,35.3635 Z M1506.2333,31.9775 C1505.8063,31.9775 1505.4723,31.6485 1505.4723,31.2285 C1505.4723,30.8085 1505.8063,30.4795 1506.2333,30.4795 C1506.6593,30.4795 1506.9933,30.8085 1506.9933,31.2285 C1506.9933,31.6485 1506.6593,31.9775 1506.2333,31.9775 Z" id="Fill-1"></path>
            </g>
        </g>
    </g>
</svg>