<?xml version="1.0" encoding="UTF-8"?>
<svg width="75px" height="63px" viewBox="0 0 75 63" version="1.1" xmlns="http://www.w3.org/2000/svg" xmlns:xlink="http://www.w3.org/1999/xlink">
    <!-- Generator: Sketch 57 (83077) - https://sketch.com -->
    <title>UlemisteCity</title>
    <desc>Created with Sketch.</desc>
    <g id="1600" stroke="none" stroke-width="1" fill="none" fill-rule="evenodd">
        <g id="1600-7-1-Location" transform="translate(-1201.000000, -1651.000000)" fill="#080E1D">
            <g id="map2-2" transform="translate(1.000000, 1209.000000)">
                <g id="map2" transform="translate(-146.000000, -74.000000)">
                    <g id="UlemisteCity" transform="translate(1312.000000, 516.000000)">
                        <path d="M78.5572621,0 C78.8017696,0 79,0.184978339 79,0.413140152 L79,23.5868598 C79,23.8150217 78.8017696,24 78.5572621,24 L81.5740829,24 C81.809301,24 82,24.1310731 82,24.2927454 L82,25 L84.578125,25 C84.8111107,25 85,25.2238687 85,25.5 C85,25.7761313 84.8111107,26 84.578125,26 L58.421875,26 C58.1888893,26 58,25.7761313 58,25.5 C58,25.2238687 58.1888893,25 58.421875,25 L62,25 L62,24.2927454 C62,24.1310731 62.190699,24 62.4259171,24 L65.4427379,24 C65.1982304,24 65,23.8150217 65,23.5868598 L65,0.413140152 C65,0.184978339 65.1982304,0 65.4427379,0 L78.5572621,0 Z M81.1481659,24.5854908 L62.8518341,24.5854908 L62.851,25 L81.148,25 L81.1481659,24.5854908 Z M78.114,20 L65.885,20 L65.8854758,23.1737197 L78.1145242,23.1737197 L78.114,20 Z M78.114,16 L65.885,16 L65.885,19 L78.114,19 L78.114,16 Z M78.114,12 L65.885,12 L65.885,15 L78.114,15 L78.114,12 Z M78.114,9 L65.885,9 L65.885,11 L78.114,11 L78.114,9 Z M78.114,4 L65.885,4 L65.885,8 L78.114,8 L78.114,4 Z M78.1145242,0.826280304 L65.8854758,0.826280304 L65.885,3 L78.114,3 L78.1145242,0.826280304 Z" id="Combined-Shape-Copy" fill-rule="nonzero"></path>
                        <text id="Ülemiste-City" font-family=".SFNSDisplay, .SF NS Display" font-size="30" font-weight="normal" line-spacing="30" letter-spacing="1.2">
                            <tspan x="3.00322266" y="58.7734375">Ülemiste </tspan>
                            <tspan x="36.2381836" y="88.7734375">City</tspan>
                        </text>
                    </g>
                </g>
            </g>
        </g>
    </g>
</svg>