<?xml version="1.0" encoding="UTF-8"?>
<svg width="93px" height="36px" viewBox="0 0 93 36" version="1.1" xmlns="http://www.w3.org/2000/svg" xmlns:xlink="http://www.w3.org/1999/xlink">
    <!-- Generator: Sketch 57 (83077) - https://sketch.com -->
    <title>Vanalinn</title>
    <desc>Created with Sketch.</desc>
    <g id="1600" stroke="none" stroke-width="1" fill="none" fill-rule="evenodd">
        <g id="1600-7-1-Location" transform="translate(-820.000000, -1412.000000)" fill="#080E1D">
            <g id="map2-2" transform="translate(1.000000, 1209.000000)">
                <g id="map2" transform="translate(-146.000000, -74.000000)">
                    <g id="Vanalinn" transform="translate(965.000000, 277.000000)">
                        <path d="M6,22 L8,22 L8,24 L6,24 L6,22 Z M9,24 L11,24 L11,22 L9,22 L9,24 Z M25,24 L27,24 L27,22 L25,22 L25,24 Z M28,24 L30,24 L30,22 L28,22 L28,24 Z M36,34.5 L36,36 L32.25,36 L23.25,36 L12.75,36 L3.75,36 L0,36 L0,34.5 L3,34.5 L3,21 L2.25,21 C1.8,21 1.5,20.7 1.5,20.25 L1.5,14.25 C1.5,13.8 1.8,13.5 2.25,13.5 L10.5,13.5 L10.5,10.5 L10.5,9.75 C10.5,9.525 10.575,9.375 10.725,9.225 L17.25,2.7 L17.25,0 L18.75,0 L18.75,2.7 L25.275,9.225 C25.425,9.375 25.5,9.525 25.5,9.75 L25.5,10.5 L25.5,13.5 L33.75,13.5 C34.2,13.5 34.5,13.8 34.5,14.25 L34.5,20.25 C34.5,20.7 34.2,21 33.75,21 L33,21 L33,34.5 L36,34.5 Z M33,15 L31.4285714,15 L31.4285714,16.6666667 L29.8571429,16.6666667 L29.8571429,15 L28.2857143,15 L28.2857143,16.6666667 L26.7142857,16.6666667 L26.7142857,15 L25.1428571,15 L25.1428571,16.6666667 L23.5714286,16.6666667 L23.5714286,15 L22,15 L22,20 L22.7857143,20 L32.2142857,20 L33,20 L33,15 Z M20,27.5 C20,27.125 19.85,26.75 19.55,26.45 C18.95,25.85 17.975,25.85 17.45,26.45 C17.15,26.75 17,27.125 17,27.5 L17,35 L20,35 L20,27.5 Z M21.5,27.2727273 L21.5,35 L23,35 L23,21.0909091 L22.25,21.0909091 C21.8,21.0909091 21.5,20.7818182 21.5,20.3181818 L21.5,18 L15.5,18 L15.5,20.3181818 C15.5,20.7818182 15.2,21.0909091 14.75,21.0909091 L14,21.0909091 L14,35 L15.5,35 L15.5,27.2727273 C15.5,26.4227273 15.8,25.65 16.4,25.1090909 C17.525,23.95 19.475,23.95 20.675,25.1090909 C21.2,25.65 21.5,26.4227273 21.5,27.2727273 Z M13,10 L24,10 L18.5,4 L13,10 Z M12,13.1428571 L14.25,13.1428571 C14.7,13.1428571 15,13.4285714 15,13.8571429 L15,16 L21,16 L21,13.8571429 C21,13.4285714 21.3,13.1428571 21.75,13.1428571 L24,13.1428571 L24,11 L12,11 L12,13.1428571 Z M3,20 L3.78571429,20 L13.2142857,20 L14,20 L14,15 L12.4285714,15 L12.4285714,16.6666667 L10.8571429,16.6666667 L10.8571429,15 L9.28571429,15 L9.28571429,16.6666667 L7.71428571,16.6666667 L7.71428571,15 L6.14285714,15 L6.14285714,16.6666667 L4.57142857,16.6666667 L4.57142857,15 L3,15 L3,20 Z M12,35 L12,21 L4,21 L4,35 L12,35 Z M32,35 L32,21 L24,21 L24,35 L32,35 Z" id="Shape" fill-rule="nonzero"></path>
                        <text font-family=".SFNSDisplay, .SF NS Display" font-size="30" font-weight="normal" line-spacing="30" letter-spacing="1.2">
                            <tspan x="46" y="38">Vanalinn</tspan>
                        </text>
                    </g>
                </g>
            </g>
        </g>
    </g>
</svg>